Item Analysis on R
…
Celdirici analizi

celdirici_ozet <- secenek %>%
  pivot_longer(everything(), names_to = "Madde", values_to = "Secenek") %>%
  group_by(Madde, Secenek) %>%
  summarise(Frekans = n(), .groups = 'drop') %>%
  group_by(Madde) %>%
  mutate(Oran = Frekans / sum(Frekans)) # secilme oranı hesabi

print(celdirici_ozet)

## # A tibble: 39 × 4
## # Groups:   Madde [10]
##    Madde Secenek Frekans   Oran
##    <chr> <chr>     <int>  <dbl>
##  1 m1    A             7 0.163 
##  2 m1    B             3 0.0698
##  3 m1    C             1 0.0233
##  4 m1    D            32 0.744 
##  5 m10   A            36 0.837 
##  6 m10   B             1 0.0233
##  7 m10   C             2 0.0465
##  8 m10   D             4 0.0930
##  9 m2    B             7 0.163 
## 10 m2    C            34 0.791 
## # ℹ 29 more rows
…
